2_7_1_-20_-20_0_2_30_1000_1e-14.out 
Sweep=	1119	rtime=	53	vmemkB=	26428	vmemPeakkB=	26588	dim=	5	E=	-40.3942	E0=	-80.3942	N=	2	Ni=	0.285714	0.285714	0.285714	0.285714	0.285714	0.285714	0.285714	NcNi=	1.81986e-08	6.70669e-06	0.00272172	0.565972	0.00272172	6.70669e-06	1.81986e-08

4_5_0_20_-3_0_4_30_1000_1e-14.out
Sweep=	1119	rtime=	63	vmemkB=	26356	vmemPeakkB=	26744	dim=	10	E=	-9.65188	E0=	70.3481	N=	4Ni=	0.567683	0.94397	0.976693	0.94397	0.567683	NcNi=	0.544401	0.918382	0.981204	0.9183820.544401	

2_11_0_-2_0_0_2_30_1000_1e-14.out 
Sweep=	1119	rtime=	106	vmemkB=	26848	vmemPeakkB=	29208	dim=	7	E=	-5.62596	E0=	-9.62596	N=	2	Ni=	0.00819185	0.0573815	0.150458	0.257248	0.340684	0.372076	0.340684	0.257248	0.150458	0.0573815	0.00819185	NcNi=	1.56297e-05	0.000145903	0.00104765	0.00697662	0.0441758	0.639428	0.0441758	0.00697662	0.00104765	0.000145903	1.56297e-05

2_21_1_0_-3_0_2_30_1000_1e-14.out 
Sweep=	1119	rtime=	334	vmemkB=	28516	vmemPeakkB=	30080	dim=	12	E=	-5.37874	E0=	-5.37874	N=	2	Ni=	0.0952381	0.0952381	0.0952381	0.0952381	0.0952381	0.0952381	0.0952381	0.0952381	0.0952381	0.0952381	0.0952381	0.0952381	0.0952381	0.0952381	0.0952381	0.0952381	0.0952381	0.0952381	0.0952381	0.0952381	0.0952381	NcNi=	3.14465e-08	8.97472e-08	3.94817e-07	1.93286e-06	9.67589e-06	4.86548e-05	0.000244877	0.00123267	0.00620527	0.0312376	0.112514	0.0312376	0.00620527	0.00123267	0.000244877	4.86548e-05	9.67589e-06	1.93286e-06	3.94817e-07	8.97472e-08	3.14465e-08

2_5_0_20_-3_0_2_30_1000_1e-14.out 
Sweep=	1119	rtime=	26	vmemkB=	26252	vmemPeakkB=	26340	dim=	4	E=	-4.17188	E0=	35.8281	N=	2Ni=	0.133864	0.504169	0.723934	0.504169	0.133864	NcNi=	0.0509775	0.30972	0.726474	0.30972	0.0509775

2_5_0_20_20_0_2_30_1000_1e-14.out 
Sweep=	1119	rtime=	26	vmemkB=	26252	vmemPeakkB=	26340	dim=	4	E=	-2.28306	E0=	37.7169	N=	2Ni=	0.486716	0.457142	0.112283	0.457142	0.486716	NcNi=	0.0551498	0.000987268	0.1122920.000987268	0.0551498

2_6_0_-20_-20_0_2_30_1000_1e-14.out 
Sweep=	1119	rtime=	40	vmemkB=	26392	vmemPeakkB=	26440	dim=	5	E=	-40.3681	E0=	-80.3681	N=	2	Ni=	0.0451742	0.332947	0.621878	0.621878	0.332947	0.0451742	NcNi=	6.81571e-06	0.00445822	1.23333	0.00594952	1.27661e-05	2.3527e-08	

2_7_1_-20_-20_0_2_30_1000_1e-14.out 
Sweep=	1119	rtime=	53	vmemkB=	26428	vmemPeakkB=	26588	dim=	5	E=	-40.3942	E0=	-80.3942	N=	2	Ni=	0.285714	0.285714	0.285714	0.285714	0.285714	0.285714	0.285714	NcNi=	1.81986e-08	6.70669e-06	0.00272172	0.565972	0.00272172	6.70669e-06	1.81986e-08	

2_5_0_0_0_0_2_30_1000_1e-14.out 
Sweep=	1119	rtime=	27	vmemkB=	26248	vmemPeakkB=	26340	dim=	4	E=	-3.4641	E0=	-3.4641	N=	2	Ni=	0.166667	0.5	0.666667	0.5	0.166667	NcNi=	0.0555556	0.166667	0.888889	0.1666670.0555556

2_14_1_0_0_0_2_30_1000_1e-14.out 
Sweep=	1119	rtime=	163	vmemkB=	27200	vmemPeakkB=	27824	dim=	9	E=	-4	E0=	-4	N=	2	Ni=	0.142857	0.142857	0.142857	0.142857	0.142857	0.142857	0.142857	0.142857	0.142857	0.142857	0.142857	0.142857	0.142857	0.142857	NcNi=	0.0102041	0.0102041	0.0102041	0.0102041	0.0102041	0.0102041	0.153061	0.0102041	0.0102041	0.0102041	0.0102041	0.0102041	0.0102041	0.0102041

2_11_0_0_0_0_2_30_1000_1e-14.out 
Sweep=	1119	rtime=	106	vmemkB=	26876	vmemPeakkB=	29128	dim=	7	E=	-3.8637	E0=	-3.8637	N=	2	Ni=	0.0223291	0.0833333	0.166667	0.25	0.311004	0.333333	0.311004	0.25	0.166667	0.0833333	0.0223291	NcNi=	0.00372152	0.0138889	0.0277778	0.0416667	0.051834	0.388889	0.051834	0.0416667	0.0277778	0.0138889	0.00372152

2_5_0_0.2_0_0_2_30_1000_1e-14.out 
Sweep=	1119	rtime=	27	vmemkB=	26244	vmemPeakkB=	26340	dim=	4	E=	-3.3726	E0=	-2.9726	N=	2	Ni=	0.179413	0.500089	0.640996	0.500089	0.179413	NcNi=	0.0607353	0.166291	0.8279380.166291	0.0607353

#########################################################################

3_5_0_0_0_0_3_30_1000_1e-14.out 
Sweep=	1119	rtime=	35	vmemkB=	26252	vmemPeakkB=	26440	dim=	7	E=	-5.19615	E0=	-5.19615	N=	3	Ni=	0.25	0.75	1	0.75	0.25	NcNi=	0.166667	0.5	1.66667	0.5	0.166667

3_14_1_0_0_0_3_30_1000_1e-14.out 
Sweep=	1119	rtime=	235	vmemkB=	27420	vmemPeakkB=	27828	dim=	16	E=	-6	E0=	-6	N=	3	Ni=	0.214286	0.214286	0.214286	0.214286	0.214286	0.214286	0.214286	0.214286	0.214286	0.214286	0.214286	0.214286	0.214286	0.214286	NcNi=	0.0306122	0.0306122	0.0306122	0.0306122	0.0306122	0.0306122	0.244898	0.0306122	0.0306122	0.0306122	0.0306122	0.0306122	0.0306122	0.0306122	

3_11_0_0_0_0_3_30_1000_1e-14.out 
Sweep=	1119	rtime=	152	vmemkB=	26956	vmemPeakkB=	27552	dim=	13	E=	-5.79555	E0=	-5.79555	N=	3	Ni=	0.0334936	0.125	0.25	0.375	0.466506	0.5	0.466506	0.375	0.25	0.125	0.0334936	NcNi=	0.0111645	0.0416667	0.0833333	0.125	0.155502	0.666667	0.155502	0.125	0.0833333	0.0416667	0.0111645

3_5_0_0.2_0_0_3_30_1000_1e-14.out 
Sweep=	1119	rtime=	36	vmemkB=	26252	vmemPeakkB=	26440	dim=	7	E=	-4.92394	E0=	-4.32394	N=	3	Ni=	0.28719	0.748105	0.92941	0.748105	0.28719	NcNi=	0.187404	0.479508	1.45441	0.4795080.187404

3_5_0_2_0_0_3_30_1000_1e-14.out 
Sweep=	1119	rtime=	36	vmemkB=	26256	vmemPeakkB=	26440	dim=	7	E=	-3.73658	E0=	2.26342	N=	3Ni=	0.491117	0.663013	0.69174	0.663013	0.491117	NcNi=	0.285878	0.352495	0.798474	0.352495	0.285878	

3_5_0_20_0_0_3_30_1000_1e-14.out 
Sweep=	1119	rtime=	38	vmemkB=	26256	vmemPeakkB=	26440	dim=	7	E=	-2.86313	E0=	57.1369	N=	3Ni=	0.64666	0.521563	0.663553	0.521563	0.64666	NcNi=	0.397333	0.265396	0.665201	0.2653960.397333

##############







